Xilinx/vending_machine/isim.log
ISim log file
Running: C:\Users\Psichico\Desktop\Vending_Machine_FPGA\Xilinx\vending_machine\vm_testbench_isim_beh.exe -intstyle ise -gui -tclbatch isim.cmd -wdb C:/Users/Psichico/Desktop/Vending_Machine_FPGA/Xilinx/vending_machine/vm_testbench_isim_beh.wdb 
ISim P.20131013 (signature 0x7708f090)
WARNING: A WEBPACK license was found.
WARNING: Please use Xilinx License Configuration Manager to check out a full ISim license.
WARNING: ISim will run in Lite mode. Please refer to the ISim documentation for more information on the differences between the Lite and the Full version.
This is a Lite version of ISim.
Time resolution is 1 ps
# onerror resume
# wave add /
# run 1000 ns
Simulator is doing circuit initialization process.
Finished circuit initialization process.

 Button=0 , State=0, Price=00, Quantity=00, Amount-To-Be-Paid=00, Entered_Amount=00

 Button=f , State=0, Price=00, Quantity=00, Amount-To-Be-Paid=00, Entered_Amount=00

 Button=0 , State=1, Price=00, Quantity=00, Amount-To-Be-Paid=00, Entered_Amount=00

 Button=1 , State=1, Price=06, Quantity=00, Amount-To-Be-Paid=00, Entered_Amount=00

 Button=0 , State=2, Price=06, Quantity=00, Amount-To-Be-Paid=00, Entered_Amount=00

 Button=f , State=2, Price=06, Quantity=00, Amount-To-Be-Paid=00, Entered_Amount=00

 Button=0 , State=3, Price=06, Quantity=00, Amount-To-Be-Paid=00, Entered_Amount=00

 Button=c , State=3, Price=06, Quantity=00, Amount-To-Be-Paid=00, Entered_Amount=00

 Button=0 , State=3, Price=06, Quantity=01, Amount-To-Be-Paid=00, Entered_Amount=00

 Button=f , State=3, Price=06, Quantity=01, Amount-To-Be-Paid=00, Entered_Amount=00

 Button=0 , State=4, Price=06, Quantity=01, Amount-To-Be-Paid=06, Entered_Amount=00

 Button=f , State=4, Price=06, Quantity=01, Amount-To-Be-Paid=06, Entered_Amount=00

 Button=0 , State=5, Price=06, Quantity=01, Amount-To-Be-Paid=06, Entered_Amount=00

 Button=8 , State=5, Price=06, Quantity=01, Amount-To-Be-Paid=06, Entered_Amount=01

 Button=0 , State=5, Price=06, Quantity=01, Amount-To-Be-Paid=06, Entered_Amount=01

 Button=9 , State=5, Price=06, Quantity=01, Amount-To-Be-Paid=06, Entered_Amount=06

 Button=0 , State=5, Price=06, Quantity=01, Amount-To-Be-Paid=06, Entered_Amount=06

 Button=f , State=5, Price=06, Quantity=01, Amount-To-Be-Paid=00, Entered_Amount=06

 Button=0 , State=6, Price=06, Quantity=01, Amount-To-Be-Paid=00, Entered_Amount=06

 Button=f , State=6, Price=06, Quantity=01, Amount-To-Be-Paid=00, Entered_Amount=06

 Button=0 , State=0, Price=00, Quantity=00, Amount-To-Be-Paid=00, Entered_Amount=00
Stopped at time : 420 ns : File "C:/Users/Psichico/Desktop/Vending_Machine_FPGA/Xilinx/vending_machine/vm_testbench.v" Line 101
